Focos de Queimadas por Bioma no Brasil entre o ano 1999 e 2021
…
Com interesse de entender o comportamento do nmero de ocorrncias de
focos de queimadas ao longo dos meses, temos na figura abaixo a
distribuio dos registro de focos de queimadas para os biomas
brasileiros ao longo dos meses.

biomas_month <- dados %>% group_by(bioma,mes) %>% summarise(soma = sum(number),.groups = "drop") 

biomas_month$mes <- sapply(biomas_month$mes,trans_data) 
biomas_month

## # A tibble: 72 x 3
##    bioma    mes          soma
##    <chr>    <chr>       <dbl>
##  1 amazonia 2021-04-01  15334
##  2 amazonia 2021-08-01 611105
##  3 amazonia 2021-12-01 151413
##  4 amazonia 2021-02-01  18857
##  5 amazonia 2021-01-01  37125
##  6 amazonia 2021-07-01 145924
##  7 amazonia 2021-06-01  62941
##  8 amazonia 2021-05-01  23326
##  9 amazonia 2021-03-01  24331
## 10 amazonia 2021-11-01 301803
## # ... with 62 more rows
…
Utilizando o mtodo de sries hierrquicas foram ajustados modelos
para os 6 biomas brasileiros, alm do modelo intitulado como agregado,
referente ao modelo para ajuste do Brasil inteiro.

prod_biomas <- queimadas_biomas %>%
  dplyr::filter(!bioma == "Total") %>%
  fabletools::aggregate_key(bioma, number = sum(number, na.rm = TRUE))
prod_biomas

## # A tsibble: 2,100 x 3 [1M]
## # Key:       bioma [7]
##        date bioma        number
##       <mth> <chr*>        <dbl>
##  1 1998 jan <aggregated>      0
##  2 1998 fev <aggregated>      0
##  3 1998 mar <aggregated>      0
##  4 1998 abr <aggregated>      0
##  5 1998 mai <aggregated>      0
##  6 1998 jun <aggregated>   3551
##  7 1998 jul <aggregated>   8067
##  8 1998 ago <aggregated>  35551
##  9 1998 set <aggregated>  41950
## 10 1998 out <aggregated>  23468
## # ... with 2,090 more rows
…
